{
  "openapi": "3.0.0",
  "info": {
    "version": "v2.0.5",
    "title": "視頻串流微服務 - 後台",
    "description": "。[Trello](https://trello.com/c/oP6lU6C7/15-swagger-api) 。[DB ERMODEL](https://dbdiagram.io/d/5e0d7f10edf08a25543f8b32) 。"
  },
  "servers": [
    {
      "url": "http://pub.demo.vedio.info/api",
      "description": "公開 API"
    },
    {
      "url": "http://api.demo.vedio.info/api",
      "description": "內部 API"
    }
  ],
  "tags": [
    {
      "name": "共通"
    },
    {
      "name": "帳號管理"
    },
    {
      "name": "管理員管理"
    },
    {
      "name": "角色管理"
    },
    {
      "name": "管理員/角色管理"
    },
    {
      "name": "選單管理"
    },
    {
      "name": "權限管理"
    },
    {
      "name": "視頻管理"
    },
    {
      "name": "選項清單"
    }
  ],
  "paths": {
    "/v1/login": {
      "post": {
        "tags": [
          "共通"
        ],
        "summary": "登入",
        "servers": [
          {
            "url": "http://larla.info/api",
            "description": "video stream [後台]"
          }
        ],
        "requestBody": {
          "required": true,
          "content": {
            "application/json": {
              "schema": {
                "type": "object",
                "properties": {
                  "account": {
                    "type": "string",
                    "description": "管理員編號",
                    "example": "20201212"
                  },
                  "password": {
                    "type": "string",
                    "description": "密碼",
                    "example": "xxxxxx"
                  }
                }
              }
            }
          }
        },
        "responses": {
          "200": {
            "description": "成功",
            "content": {
              "application/json": {
                "schema": {
                  "type": "object",
                  "properties": {
                    "id": {
                      "type": "number",
                      "description": "成員 Id",
                      "example": 1
                    },
                    "adminId": {
                      "type": "number",
                      "description": "管理員 Id",
                      "example": null
                    },
                    "apiToken": {
                      "type": "string",
                      "description": "登入權證"
                    },
                    "account": {
                      "type": "string",
                      "description": "管理員編號"
                    },
                    "name": {
                      "type": "string",
                      "description": "暱稱"
                    },
                    "isAdmin": {
                      "type": "boolean",
                      "description": "是否為管理員",
                      "example": false
                    }
                  }
                }
              }
            }
          },
          "401": {
            "$ref": "#/components/responses/Unauthorized_401"
          },
          "500": {
            "$ref": "#/components/responses/Internal_500"
          }
        }
      }
    },
    "/v1/logout": {
      "post": {
        "tags": [
          "共通"
        ],
        "summary": "登出",
        "security": [
          {
            "BearerAuth": []
          }
        ],
        "responses": {
          "201": {
            "$ref": "#/components/responses/Created_201"
          },
          "400": {
            "$ref": "#/components/responses/BestRequest_400"
          },
          "500": {
            "$ref": "#/components/responses/Internal_500"
          }
        }
      }
    },
    "/v1/notifies": {
      "post": {
        "tags": [
          "共通"
        ],
        "summary": "websocket 通知",
        "description": "0.1.1.3",
        "security": [
          {
            "BearerAuth": []
          }
        ],
        "requestBody": {
          "required": true,
          "content": {
            "application/json": {
              "schema": {
                "type": "object",
                "properties": {
                  "event": {
                    "type": "string",
                    "description": "前端 listen 的事件名稱",
                    "example": "bck_notify"
                  },
                  "message": {
                    "type": "string",
                    "description": "訊息",
                    "example": "yourmessage"
                  }
                }
              }
            }
          }
        },
        "responses": {
          "201": {
            "$ref": "#/components/responses/Created_201"
          },
          "400": {
            "$ref": "#/components/responses/BestRequest_400"
          },
          "404": {
            "$ref": "#/components/responses/NotFound_404"
          },
          "500": {
            "$ref": "#/components/responses/Internal_500"
          }
        }
      }
    },
    "/v1/members": {
      "post": {
        "tags": [
          "帳號管理"
        ],
        "summary": "新增成員",
        "description": "0.1.1.1",
        "security": [
          {
            "BearerAuth": []
          }
        ],
        "requestBody": {
          "required": true,
          "content": {
            "application/json": {
              "schema": {
                "type": "object",
                "properties": {
                  "name": {
                    "type": "string",
                    "description": "姓名",
                    "example": "余小松"
                  },
                  "account": {
                    "type": "string",
                    "description": "帳號",
                    "example": 20201212
                  },
                  "password": {
                    "type": "string",
                    "description": "密碼",
                    "example": "xxxxxxx"
                  },
                  "isEnabled": {
                    "type": "boolean",
                    "description": "啟用狀態",
                    "example": true
                  }
                }
              }
            }
          }
        },
        "responses": {
          "201": {
            "$ref": "#/components/responses/Created_201"
          },
          "400": {
            "$ref": "#/components/responses/BestRequest_400"
          },
          "404": {
            "$ref": "#/components/responses/NotFound_404"
          },
          "500": {
            "$ref": "#/components/responses/Internal_500"
          }
        }
      },
      "get": {
        "tags": [
          "帳號管理"
        ],
        "summary": "取得成員列表",
        "description": "0.1.1.3",
        "security": [
          {
            "BearerAuth": []
          }
        ],
        "parameters": [
          {
            "description": "關鍵字",
            "name": "keyword",
            "schema": {
              "type": "string"
            },
            "required": false,
            "allowEmptyValue": false,
            "in": "query"
          },
          {
            "$ref": "#/components/parameters/pageParam"
          },
          {
            "$ref": "#/components/parameters/pageSizeParam"
          },
          {
            "$ref": "#/components/parameters/sortNameParam"
          },
          {
            "$ref": "#/components/parameters/sortParam"
          },
          {
            "$ref": "#/components/parameters/isEnabledParam"
          }
        ],
        "responses": {
          "200": {
            "description": "成功",
            "content": {
              "application/json": {
                "schema": {
                  "type": "object",
                  "properties": {
                    "totalSize": {
                      "type": "number",
                      "description": "總筆數",
                      "example": 2
                    },
                    "list": {
                      "type": "array",
                      "description": "資料集合",
                      "example": [
                        {
                          "id": 1,
                          "name": "余小松",
                          "account": 20201212,
                          "isEnabled": true,
                          "createdOn": "2020-01-01 18:00"
                        },
                        {
                          "id": 2,
                          "name": "堃小勝",
                          "account": 20201213,
                          "isEnabled": false,
                          "createdOn": "2020-01-01 18:00"
                        }
                      ],
                      "items": {
                        "type": "object"
                      }
                    }
                  }
                }
              }
            }
          },
          "401": {
            "$ref": "#/components/responses/Unauthorized_401"
          },
          "404": {
            "$ref": "#/components/responses/NotFound_404"
          },
          "500": {
            "$ref": "#/components/responses/Internal_500"
          }
        }
      }
    },
    "/v1/members/{id}": {
      "parameters": [
        {
          "description": "識別碼",
          "name": "id",
          "schema": {
            "type": "number"
          },
          "required": true,
          "in": "path",
          "example": 1
        }
      ],
      "get": {
        "tags": [
          "帳號管理"
        ],
        "summary": "取得單筆成員",
        "description": "0.1.1.4",
        "security": [
          {
            "BearerAuth": []
          }
        ],
        "responses": {
          "200": {
            "description": "成功",
            "content": {
              "application/json": {
                "schema": {
                  "properties": {
                    "id": {
                      "type": "number",
                      "description": "ID",
                      "example": 1
                    },
                    "name": {
                      "type": "string",
                      "description": "管理員名稱",
                      "example": "余小松"
                    },
                    "account": {
                      "type": "string",
                      "description": "管理員帳號",
                      "example": 20201212
                    },
                    "isEnabled": {
                      "type": "boolean",
                      "description": "啟用狀態",
                      "example": true
                    }
                  }
                }
              }
            }
          },
          "401": {
            "$ref": "#/components/responses/Unauthorized_401"
          },
          "404": {
            "$ref": "#/components/responses/NotFound_404"
          },
          "500": {
            "$ref": "#/components/responses/Internal_500"
          }
        }
      },
      "patch": {
        "tags": [
          "帳號管理"
        ],
        "summary": "更新成員",
        "description": "0.1.1.2",
        "security": [
          {
            "BearerAuth": []
          }
        ],
        "requestBody": {
          "required": true,
          "content": {
            "application/json": {
              "schema": {
                "type": "object",
                "properties": {
                  "name": {
                    "type": "string",
                    "description": "姓名",
                    "example": "余小松"
                  },
                  "account": {
                    "type": "string",
                    "description": "帳號",
                    "example": 20201212
                  },
                  "isEnabled": {
                    "type": "boolean",
                    "description": "啟用狀態",
                    "example": true
                  }
                }
              }
            }
          }
        },
        "responses": {
          "204": {
            "$ref": "#/components/responses/NoContent_204"
          },
          "400": {
            "$ref": "#/components/responses/BestRequest_400"
          },
          "401": {
            "$ref": "#/components/responses/Unauthorized_401"
          },
          "404": {
            "$ref": "#/components/responses/NotFound_404"
          },
          "500": {
            "$ref": "#/components/responses/Internal_500"
          }
        }
      }
    },
    "/v1/admins": {
      "post": {
        "tags": [
          "管理員管理"
        ],
        "summary": "新增管理員帳號",
        "description": "1.1.1.1",
        "security": [
          {
            "BearerAuth": []
          }
        ],
        "requestBody": {
          "required": true,
          "content": {
            "application/json": {
              "schema": {
                "type": "object",
                "properties": {
                  "memberId": {
                    "type": "number",
                    "description": "成員Id",
                    "example": 1
                  },
                  "isEnabled": {
                    "type": "boolean",
                    "description": "啟用狀態",
                    "example": true
                  }
                }
              }
            }
          }
        },
        "responses": {
          "201": {
            "$ref": "#/components/responses/Created_201"
          },
          "400": {
            "$ref": "#/components/responses/BestRequest_400"
          },
          "404": {
            "$ref": "#/components/responses/NotFound_404"
          },
          "500": {
            "$ref": "#/components/responses/Internal_500"
          }
        }
      },
      "get": {
        "tags": [
          "管理員管理"
        ],
        "summary": "取得管理員帳號列表",
        "description": "1.1.1.4",
        "security": [
          {
            "BearerAuth": []
          }
        ],
        "parameters": [
          {
            "description": "關鍵字",
            "name": "keyword",
            "schema": {
              "type": "string"
            },
            "required": false,
            "allowEmptyValue": false,
            "in": "query"
          },
          {
            "$ref": "#/components/parameters/pageParam"
          },
          {
            "$ref": "#/components/parameters/pageSizeParam"
          },
          {
            "$ref": "#/components/parameters/sortNameParam"
          },
          {
            "$ref": "#/components/parameters/sortParam"
          },
          {
            "$ref": "#/components/parameters/isEnabledParam"
          }
        ],
        "responses": {
          "200": {
            "description": "成功",
            "content": {
              "application/json": {
                "schema": {
                  "type": "object",
                  "properties": {
                    "totalSize": {
                      "type": "number",
                      "description": "總筆數",
                      "example": 2
                    },
                    "list": {
                      "type": "array",
                      "description": "資料集合",
                      "example": [
                        {
                          "id": 1,
                          "name": "余小松",
                          "hasRoles": [
                            {
                              "roleId": 1,
                              "name": "南區業務代表"
                            },
                            {
                              "roleId": 2,
                              "name": "北區業務代表"
                            }
                          ],
                          "account": 20201212,
                          "isEnabled": true,
                          "createdOn": "2020-01-01 18:00"
                        },
                        {
                          "id": 2,
                          "name": "崑小勝",
                          "hasRoles": [
                            {
                              "roleId": 2,
                              "name": "北區業務代表"
                            }
                          ],
                          "account": 20201213,
                          "isEnabled": false,
                          "createdOn": "2020-01-01 18:00"
                        },
                        {
                          "id": 3,
                          "name": "小小庭",
                          "hasRoles": [],
                          "account": 20201215,
                          "isEnabled": true,
                          "createdOn": "2020-01-01 18:00"
                        }
                      ],
                      "items": {
                        "type": "object"
                      }
                    }
                  }
                }
              }
            }
          },
          "401": {
            "$ref": "#/components/responses/Unauthorized_401"
          },
          "404": {
            "$ref": "#/components/responses/NotFound_404"
          },
          "500": {
            "$ref": "#/components/responses/Internal_500"
          }
        }
      }
    },
    "/v1/admins/{id}": {
      "parameters": [
        {
          "description": "識別碼",
          "name": "id",
          "schema": {
            "type": "number"
          },
          "required": true,
          "in": "path",
          "example": 1
        }
      ],
      "get": {
        "tags": [
          "管理員管理"
        ],
        "summary": "取得單筆管理員帳號",
        "description": "1.1.1.5",
        "security": [
          {
            "BearerAuth": []
          }
        ],
        "responses": {
          "200": {
            "description": "成功",
            "content": {
              "application/json": {
                "schema": {
                  "properties": {
                    "id": {
                      "type": "number",
                      "description": "ID",
                      "example": 1
                    },
                    "name": {
                      "type": "string",
                      "description": "管理員名稱",
                      "example": "余小松"
                    },
                    "hasRoles": {
                      "type": "array",
                      "description": "擁有的角色",
                      "example": [
                        {
                          "roleId": 1,
                          "name": "南區業務代表"
                        },
                        {
                          "roleId": 2,
                          "name": "北區業務代表"
                        }
                      ]
                    },
                    "account": {
                      "type": "string",
                      "description": "管理員帳號",
                      "example": 20201212
                    },
                    "isEnabled": {
                      "type": "boolean",
                      "description": "啟用狀態",
                      "example": true
                    }
                  }
                }
              }
            }
          },
          "401": {
            "$ref": "#/components/responses/Unauthorized_401"
          },
          "404": {
            "$ref": "#/components/responses/NotFound_404"
          },
          "500": {
            "$ref": "#/components/responses/Internal_500"
          }
        }
      },
      "patch": {
        "tags": [
          "管理員管理"
        ],
        "summary": "更新管理員帳號",
        "description": "1.1.1.2",
        "security": [
          {
            "BearerAuth": []
          }
        ],
        "requestBody": {
          "required": true,
          "content": {
            "application/json": {
              "schema": {
                "type": "object",
                "properties": {
                  "isEnabled": {
                    "type": "boolean",
                    "description": "啟用狀態",
                    "example": true
                  }
                }
              }
            }
          }
        },
        "responses": {
          "204": {
            "$ref": "#/components/responses/NoContent_204"
          },
          "400": {
            "$ref": "#/components/responses/BestRequest_400"
          },
          "401": {
            "$ref": "#/components/responses/Unauthorized_401"
          },
          "404": {
            "$ref": "#/components/responses/NotFound_404"
          },
          "500": {
            "$ref": "#/components/responses/Internal_500"
          }
        }
      },
      "delete": {
        "tags": [
          "管理員管理"
        ],
        "summary": "刪除管理員帳號",
        "description": "1.1.1.6",
        "security": [
          {
            "BearerAuth": []
          }
        ],
        "responses": {
          "204": {
            "$ref": "#/components/responses/NoContent_204"
          },
          "401": {
            "$ref": "#/components/responses/Unauthorized_401"
          },
          "404": {
            "$ref": "#/components/responses/NotFound_404"
          },
          "500": {
            "$ref": "#/components/responses/Internal_500"
          }
        }
      }
    },
    "/v1/roles": {
      "post": {
        "tags": [
          "角色管理"
        ],
        "summary": "新增角色",
        "description": "2.1.1.1",
        "security": [
          {
            "BearerAuth": []
          }
        ],
        "requestBody": {
          "required": true,
          "content": {
            "application/json": {
              "schema": {
                "type": "object",
                "properties": {
                  "name": {
                    "type": "string",
                    "description": "角色名稱",
                    "example": "視頻上傳人員"
                  },
                  "remark": {
                    "type": "string",
                    "description": "備註",
                    "example": "xxxxx"
                  },
                  "isEnabled": {
                    "type": "boolean",
                    "description": "啟用狀態",
                    "example": true
                  }
                }
              }
            }
          }
        },
        "responses": {
          "201": {
            "$ref": "#/components/responses/Created_201"
          },
          "400": {
            "$ref": "#/components/responses/BestRequest_400"
          },
          "404": {
            "$ref": "#/components/responses/NotFound_404"
          },
          "500": {
            "$ref": "#/components/responses/Internal_500"
          }
        }
      },
      "get": {
        "tags": [
          "角色管理"
        ],
        "summary": "取得角色列表",
        "description": "2.1.1.4",
        "security": [
          {
            "BearerAuth": []
          }
        ],
        "parameters": [
          {
            "description": "關鍵字",
            "name": "keyword",
            "schema": {
              "type": "string"
            },
            "required": false,
            "allowEmptyValue": false,
            "in": "query"
          },
          {
            "$ref": "#/components/parameters/pageParam"
          },
          {
            "$ref": "#/components/parameters/pageSizeParam"
          },
          {
            "$ref": "#/components/parameters/sortNameParam"
          },
          {
            "$ref": "#/components/parameters/sortParam"
          },
          {
            "$ref": "#/components/parameters/isEnabledParam"
          }
        ],
        "responses": {
          "200": {
            "description": "成功",
            "content": {
              "application/json": {
                "schema": {
                  "type": "object",
                  "properties": {
                    "totalSize": {
                      "type": "number",
                      "description": "總筆數",
                      "example": 2
                    },
                    "list": {
                      "type": "array",
                      "description": "資料集合",
                      "example": [
                        {
                          "id": 1,
                          "name": "一般使用者",
                          "isEnabled": true,
                          "remark": null,
                          "createdOn": "2020-01-01 18:00"
                        },
                        {
                          "id": 2,
                          "name": "南區業務代表",
                          "isEnabled": false,
                          "remark": "公司業務代表",
                          "createdBy": "余小松",
                          "createdOn": "2020-01-01 18:00"
                        }
                      ],
                      "items": {
                        "type": "object"
                      }
                    }
                  }
                }
              }
            }
          },
          "401": {
            "$ref": "#/components/responses/Unauthorized_401"
          },
          "404": {
            "$ref": "#/components/responses/NotFound_404"
          },
          "500": {
            "$ref": "#/components/responses/Internal_500"
          }
        }
      }
    },
    "/v1/roles/{id}": {
      "parameters": [
        {
          "description": "識別碼",
          "name": "id",
          "schema": {
            "type": "number"
          },
          "required": true,
          "in": "path",
          "example": 1
        }
      ],
      "get": {
        "tags": [
          "角色管理"
        ],
        "summary": "取得單筆角色",
        "description": "2.1.1.5",
        "security": [
          {
            "BearerAuth": []
          }
        ],
        "responses": {
          "200": {
            "description": "成功",
            "content": {
              "application/json": {
                "schema": {
                  "properties": {
                    "id": {
                      "type": "number",
                      "description": "ID",
                      "example": 1
                    },
                    "name": {
                      "type": "string",
                      "description": "角色名稱",
                      "example": "片商"
                    },
                    "isEnabled": {
                      "type": "boolean",
                      "description": "啟用狀態",
                      "example": true
                    }
                  }
                }
              }
            }
          },
          "401": {
            "$ref": "#/components/responses/Unauthorized_401"
          },
          "404": {
            "$ref": "#/components/responses/NotFound_404"
          },
          "500": {
            "$ref": "#/components/responses/Internal_500"
          }
        }
      },
      "patch": {
        "tags": [
          "角色管理"
        ],
        "summary": "更新角色",
        "description": "2.1.1.2",
        "security": [
          {
            "BearerAuth": []
          }
        ],
        "requestBody": {
          "required": true,
          "content": {
            "application/json": {
              "schema": {
                "type": "object",
                "properties": {
                  "name": {
                    "type": "string",
                    "description": "角色名稱",
                    "example": "片商松"
                  },
                  "isEnabled": {
                    "type": "boolean",
                    "description": "啟用狀態",
                    "example": true
                  }
                }
              }
            }
          }
        },
        "responses": {
          "204": {
            "$ref": "#/components/responses/NoContent_204"
          },
          "400": {
            "$ref": "#/components/responses/BestRequest_400"
          },
          "401": {
            "$ref": "#/components/responses/Unauthorized_401"
          },
          "404": {
            "$ref": "#/components/responses/NotFound_404"
          },
          "500": {
            "$ref": "#/components/responses/Internal_500"
          }
        }
      },
      "delete": {
        "tags": [
          "角色管理"
        ],
        "summary": "刪除角色",
        "description": "2.1.1.3",
        "security": [
          {
            "BearerAuth": []
          }
        ],
        "responses": {
          "204": {
            "$ref": "#/components/responses/NoContent_204"
          },
          "401": {
            "$ref": "#/components/responses/Unauthorized_401"
          },
          "404": {
            "$ref": "#/components/responses/NotFound_404"
          },
          "500": {
            "$ref": "#/components/responses/Internal_500"
          }
        }
      }
    },
    "/v1/admins/{adminId}/roles/{roleId}": {
      "parameters": [
        {
          "description": "角色id",
          "name": "roleId",
          "schema": {
            "type": "number"
          },
          "required": true,
          "in": "path",
          "example": 1
        },
        {
          "description": "管理員id",
          "name": "adminId",
          "schema": {
            "type": "number"
          },
          "required": true,
          "in": "path",
          "example": 2
        }
      ],
      "post": {
        "tags": [
          "管理員/角色管理"
        ],
        "summary": "新增管理員/角色",
        "description": "3.1.1.1",
        "security": [
          {
            "BearerAuth": []
          }
        ],
        "responses": {
          "201": {
            "$ref": "#/components/responses/Created_201"
          },
          "400": {
            "$ref": "#/components/responses/BestRequest_400"
          },
          "404": {
            "$ref": "#/components/responses/NotFound_404"
          },
          "500": {
            "$ref": "#/components/responses/Internal_500"
          }
        }
      },
      "patch": {
        "tags": [
          "管理員/角色管理"
        ],
        "summary": "更新管理員/角色",
        "description": "3.1.1.2",
        "security": [
          {
            "BearerAuth": []
          }
        ],
        "responses": {
          "204": {
            "$ref": "#/components/responses/NoContent_204"
          },
          "400": {
            "$ref": "#/components/responses/BestRequest_400"
          },
          "401": {
            "$ref": "#/components/responses/Unauthorized_401"
          },
          "404": {
            "$ref": "#/components/responses/NotFound_404"
          },
          "500": {
            "$ref": "#/components/responses/Internal_500"
          }
        }
      },
      "delete": {
        "tags": [
          "管理員/角色管理"
        ],
        "summary": "刪除管理員/角色",
        "description": "3.1.1.3",
        "security": [
          {
            "BearerAuth": []
          }
        ],
        "responses": {
          "204": {
            "$ref": "#/components/responses/NoContent_204"
          },
          "401": {
            "$ref": "#/components/responses/Unauthorized_401"
          },
          "404": {
            "$ref": "#/components/responses/NotFound_404"
          },
          "500": {
            "$ref": "#/components/responses/Internal_500"
          }
        }
      }
    },
    "/v1/menus": {
      "post": {
        "tags": [
          "選單管理"
        ],
        "summary": "新增選單",
        "description": "4.1.1.1",
        "security": [
          {
            "BearerAuth": []
          }
        ],
        "requestBody": {
          "required": true,
          "content": {
            "application/json": {
              "schema": {
                "type": "object",
                "properties": {
                  "title": {
                    "type": "string",
                    "description": "選單名稱",
                    "example": "視頻管理"
                  },
                  "link": {
                    "type": "string",
                    "description": "選單連結",
                    "example": "vedio"
                  },
                  "menuCode": {
                    "type": "string",
                    "description": "選單代碼",
                    "example": "vedio"
                  },
                  "parentId": {
                    "type": "number",
                    "description": "父層id",
                    "example": 1
                  },
                  "menuType": {
                    "type": "number",
                    "description": "選單類型",
                    "example": 1
                  },
                  "iconName": {
                    "type": "string",
                    "description": "icon名稱",
                    "example": "ring-class"
                  },
                  "iconColor": {
                    "type": "string",
                    "description": "icon顏色",
                    "example": null
                  },
                  "isEnabled": {
                    "type": "boolean",
                    "description": "啟用狀態",
                    "example": true
                  }
                }
              }
            }
          }
        },
        "responses": {
          "201": {
            "$ref": "#/components/responses/Created_201"
          },
          "400": {
            "$ref": "#/components/responses/BestRequest_400"
          },
          "404": {
            "$ref": "#/components/responses/NotFound_404"
          },
          "500": {
            "$ref": "#/components/responses/Internal_500"
          }
        }
      },
      "get": {
        "tags": [
          "選單管理"
        ],
        "summary": "取得選單列表",
        "description": "4.1.1.4",
        "security": [
          {
            "BearerAuth": []
          }
        ],
        "parameters": [
          {
            "description": "關鍵字",
            "name": "keyword",
            "schema": {
              "type": "string"
            },
            "required": false,
            "allowEmptyValue": false,
            "in": "query"
          },
          {
            "$ref": "#/components/parameters/pageParam"
          },
          {
            "$ref": "#/components/parameters/pageSizeParam"
          },
          {
            "$ref": "#/components/parameters/sortNameParam"
          },
          {
            "$ref": "#/components/parameters/sortParam"
          },
          {
            "$ref": "#/components/parameters/isEnabledParam"
          }
        ],
        "responses": {
          "200": {
            "description": "成功",
            "content": {
              "application/json": {
                "schema": {
                  "type": "object",
                  "properties": {
                    "totalSize": {
                      "type": "number",
                      "description": "總筆數",
                      "example": 2
                    },
                    "list": {
                      "type": "array",
                      "description": "資料集合",
                      "example": [
                        {
                          "id": 1,
                          "title": "視頻管理",
                          "link": "video",
                          "menuCode": "video",
                          "parentId": 1,
                          "menuType": 1,
                          "iconName": "ring-class",
                          "iconColor": null,
                          "isEnabled": true,
                          "sequence": 2,
                          "childrens": [
                            {
                              "id": 3,
                              "title": "視頻設定",
                              "link": "video-set",
                              "menuCode": "video-set",
                              "parentId": 1,
                              "menuType": 1,
                              "iconName": "ring-class",
                              "iconColor": "#ffff222",
                              "isEnabled": true,
                              "sequence": 2,
                              "childrens": [
                                {
                                  "id": 8,
                                  "title": "影片裁切",
                                  "link": "video-cut",
                                  "menuCode": "video-cut",
                                  "parentId": 1,
                                  "menuType": 1,
                                  "iconName": "video-class",
                                  "iconColor": "#ffff222",
                                  "isEnabled": true,
                                  "sequence": 3,
                                  "childrens": []
                                }
                              ]
                            }
                          ]
                        },
                        {
                          "id": 2,
                          "title": "通知設定",
                          "link": "notify",
                          "menuCode": "notify",
                          "parentId": 1,
                          "menuType": 2,
                          "iconName": "notify-class",
                          "iconColor": null,
                          "isEnabled": true,
                          "sequence": 5,
                          "childrens": []
                        }
                      ],
                      "items": {
                        "type": "object"
                      }
                    }
                  }
                }
              }
            }
          },
          "401": {
            "$ref": "#/components/responses/Unauthorized_401"
          },
          "404": {
            "$ref": "#/components/responses/NotFound_404"
          },
          "500": {
            "$ref": "#/components/responses/Internal_500"
          }
        }
      }
    },
    "/v1/menus/{id}": {
      "parameters": [
        {
          "description": "識別碼",
          "name": "id",
          "schema": {
            "type": "number"
          },
          "required": true,
          "in": "path",
          "example": 1
        }
      ],
      "get": {
        "tags": [
          "選單管理"
        ],
        "summary": "取得單筆選單",
        "description": "4.1.1.5",
        "security": [
          {
            "BearerAuth": []
          }
        ],
        "responses": {
          "200": {
            "description": "成功",
            "content": {
              "application/json": {
                "schema": {
                  "properties": {
                    "id": {
                      "type": "number",
                      "description": "ID",
                      "example": 1
                    },
                    "title": {
                      "type": "string",
                      "description": "選單名稱",
                      "example": "視頻管理"
                    },
                    "link": {
                      "type": "string",
                      "description": "選單連結",
                      "example": "vedio"
                    },
                    "menuCode": {
                      "type": "string",
                      "description": "選單代碼",
                      "example": "vedio"
                    },
                    "parentId": {
                      "type": "number",
                      "description": "父層id",
                      "example": 1
                    },
                    "menuType": {
                      "type": "number",
                      "description": "選單類型",
                      "example": 1
                    },
                    "iconName": {
                      "type": "string",
                      "description": "icon名稱",
                      "example": "ring-class"
                    },
                    "iconColor": {
                      "type": "string",
                      "description": "icon顏色",
                      "example": null
                    },
                    "isEnabled": {
                      "type": "boolean",
                      "description": "啟用狀態",
                      "example": true
                    }
                  }
                }
              }
            }
          },
          "401": {
            "$ref": "#/components/responses/Unauthorized_401"
          },
          "404": {
            "$ref": "#/components/responses/NotFound_404"
          },
          "500": {
            "$ref": "#/components/responses/Internal_500"
          }
        }
      },
      "patch": {
        "tags": [
          "選單管理"
        ],
        "summary": "更新選單",
        "description": "4.1.1.2",
        "security": [
          {
            "BearerAuth": []
          }
        ],
        "requestBody": {
          "required": true,
          "content": {
            "application/json": {
              "schema": {
                "type": "object",
                "properties": {
                  "title": {
                    "type": "string",
                    "description": "選單名稱",
                    "example": "視頻管理"
                  },
                  "link": {
                    "type": "string",
                    "description": "選單連結",
                    "example": "vedio"
                  },
                  "menuCode": {
                    "type": "string",
                    "description": "選單代碼",
                    "example": "vedio"
                  },
                  "parentId": {
                    "type": "number",
                    "description": "父層id",
                    "example": 1
                  },
                  "menuType": {
                    "type": "number",
                    "description": "選單類型",
                    "example": 1
                  },
                  "iconName": {
                    "type": "string",
                    "description": "icon名稱",
                    "example": "ring-class"
                  },
                  "iconColor": {
                    "type": "string",
                    "description": "icon顏色",
                    "example": null
                  },
                  "isEnabled": {
                    "type": "boolean",
                    "description": "啟用狀態",
                    "example": true
                  }
                }
              }
            }
          }
        },
        "responses": {
          "204": {
            "$ref": "#/components/responses/NoContent_204"
          },
          "400": {
            "$ref": "#/components/responses/BestRequest_400"
          },
          "401": {
            "$ref": "#/components/responses/Unauthorized_401"
          },
          "404": {
            "$ref": "#/components/responses/NotFound_404"
          },
          "500": {
            "$ref": "#/components/responses/Internal_500"
          }
        }
      },
      "delete": {
        "tags": [
          "選單管理"
        ],
        "summary": "刪除選單",
        "description": "4.1.1.3",
        "security": [
          {
            "BearerAuth": []
          }
        ],
        "responses": {
          "204": {
            "$ref": "#/components/responses/NoContent_204"
          },
          "401": {
            "$ref": "#/components/responses/Unauthorized_401"
          },
          "404": {
            "$ref": "#/components/responses/NotFound_404"
          },
          "500": {
            "$ref": "#/components/responses/Internal_500"
          }
        }
      }
    },
    "/v1/permissions": {
      "post": {
        "tags": [
          "權限管理"
        ],
        "summary": "新增角色權限",
        "description": "5.1.1.1",
        "security": [
          {
            "BearerAuth": []
          }
        ],
        "requestBody": {
          "required": true,
          "content": {
            "application/json": {
              "schema": {
                "type": "object",
                "properties": {
                  "roleId": {
                    "type": "number",
                    "description": "角色id",
                    "example": 2
                  },
                  "permissions": {
                    "type": "array",
                    "items": {
                      "type": "number",
                      "description": "權限[選單代碼]"
                    },
                    "example": [
                      "notify",
                      "menu",
                      "permission",
                      "video"
                    ]
                  },
                  "isEnabled": {
                    "type": "boolean",
                    "description": "啟用狀態",
                    "example": true
                  }
                }
              }
            }
          }
        },
        "responses": {
          "201": {
            "$ref": "#/components/responses/Created_201"
          },
          "400": {
            "$ref": "#/components/responses/BestRequest_400"
          },
          "404": {
            "$ref": "#/components/responses/NotFound_404"
          },
          "500": {
            "$ref": "#/components/responses/Internal_500"
          }
        }
      },
      "get": {
        "tags": [
          "權限管理"
        ],
        "summary": "取得角色權限列表",
        "description": "5.1.1.4",
        "security": [
          {
            "BearerAuth": []
          }
        ],
        "responses": {
          "200": {
            "description": "成功",
            "content": {
              "application/json": {
                "schema": {
                  "type": "object",
                  "properties": {
                    "totalSize": {
                      "type": "number",
                      "description": "總筆數",
                      "example": 2
                    },
                    "list": {
                      "type": "object",
                      "description": "資料集合",
                      "example": [
                        {
                          "id": 1,
                          "roleId": 1,
                          "name": "經銷商",
                          "permissionId": 3,
                          "createdBy": "小明",
                          "isEnabled": true,
                          "createdOn": "2020-01-12 17:00",
                          "updatedOn": "2020-07-12 17:00"
                        },
                        {
                          "id": 2,
                          "roleId": 7,
                          "name": "片商",
                          "permissionId": 6,
                          "createdBy": "小王",
                          "isEnabled": true,
                          "createdOn": "2020-01-12 17:00",
                          "updatedOn": "2020-07-12 17:00"
                        },
                        {
                          "id": 3,
                          "roleId": 8,
                          "name": "最高管理員",
                          "permissionId": 17,
                          "createdBy": "小明",
                          "isEnabled": true,
                          "createdOn": "2020-01-12 17:00",
                          "updatedOn": "2020-07-12 17:00"
                        },
                        {
                          "id": 4,
                          "roleId": 9,
                          "name": "工讀生",
                          "permissionId": null,
                          "createdBy": null,
                          "isEnabled": false,
                          "createdOn": null,
                          "updatedOn": null
                        }
                      ],
                      "items": {
                        "type": "object"
                      }
                    }
                  }
                }
              }
            }
          },
          "401": {
            "$ref": "#/components/responses/Unauthorized_401"
          },
          "404": {
            "$ref": "#/components/responses/NotFound_404"
          },
          "500": {
            "$ref": "#/components/responses/Internal_500"
          }
        }
      }
    },
    "/v1/permissions/{id}": {
      "parameters": [
        {
          "description": "識別碼",
          "name": "id",
          "schema": {
            "type": "number"
          },
          "required": true,
          "in": "path",
          "example": 1
        }
      ],
      "get": {
        "tags": [
          "權限管理"
        ],
        "summary": "取得單筆角色權限",
        "description": "5.1.1.5",
        "security": [
          {
            "BearerAuth": []
          }
        ],
        "responses": {
          "200": {
            "description": "成功",
            "content": {
              "application/json": {
                "schema": {
                  "properties": {
                    "permissions": {
                      "type": "object",
                      "description": "權限",
                      "example": [
                        {
                          "title": "通知",
                          "menuCode": "notify",
                          "isVisibled": true
                        },
                        {
                          "title": "選單",
                          "menuCode": "menu",
                          "isVisibled": true
                        },
                        {
                          "title": "視頻剪裁",
                          "menuCode": "menu",
                          "isVisibled": false
                        },
                        {
                          "title": "權限",
                          "menuCode": "menu",
                          "isVisibled": true
                        },
                        {
                          "title": "視頻管理",
                          "menuCode": "menu",
                          "isVisibled": true
                        }
                      ]
                    },
                    "isEnabled": {
                      "type": "boolean",
                      "description": "啟用狀態",
                      "example": true
                    }
                  }
                }
              }
            }
          },
          "401": {
            "$ref": "#/components/responses/Unauthorized_401"
          },
          "404": {
            "$ref": "#/components/responses/NotFound_404"
          },
          "500": {
            "$ref": "#/components/responses/Internal_500"
          }
        }
      },
      "patch": {
        "tags": [
          "權限管理"
        ],
        "summary": "更新角色權限",
        "description": "5.1.1.2",
        "security": [
          {
            "BearerAuth": []
          }
        ],
        "requestBody": {
          "required": true,
          "content": {
            "application/json": {
              "schema": {
                "type": "object",
                "properties": {
                  "permissions": {
                    "type": "array",
                    "items": {
                      "description": "權限",
                      "example": [
                        "video",
                        "menu",
                        "notify"
                      ]
                    }
                  },
                  "isEnabled": {
                    "type": "boolean",
                    "description": "啟用狀態",
                    "example": true
                  }
                }
              }
            }
          }
        },
        "responses": {
          "204": {
            "$ref": "#/components/responses/NoContent_204"
          },
          "400": {
            "$ref": "#/components/responses/BestRequest_400"
          },
          "401": {
            "$ref": "#/components/responses/Unauthorized_401"
          },
          "404": {
            "$ref": "#/components/responses/NotFound_404"
          },
          "500": {
            "$ref": "#/components/responses/Internal_500"
          }
        }
      }
    },
    "/v1/sidePermissions": {
      "get": {
        "tags": [
          "權限管理"
        ],
        "summary": "取得個人選單[權限]列表",
        "description": "5.1.1.3",
        "security": [
          {
            "BearerAuth": []
          }
        ],
        "responses": {
          "200": {
            "description": "成功",
            "content": {
              "application/json": {
                "schema": {
                  "type": "object",
                  "properties": {
                    "list": {
                      "type": "array",
                      "description": "資料集合",
                      "example": [
                        {
                          "id": 1,
                          "title": "視頻管理",
                          "link": "video",
                          "menuCode": "video",
                          "iconName": "ring-class",
                          "iconColor": null,
                          "childrens": [
                            {
                              "id": 3,
                              "title": "視頻設定",
                              "link": "video-set",
                              "menuCode": "video-set",
                              "iconName": "ring-class",
                              "iconColor": "#ffff222",
                              "childrens": [
                                {
                                  "id": 8,
                                  "title": "影片裁切",
                                  "link": "video-cut",
                                  "menuCode": "video-cut",
                                  "iconName": "video-class",
                                  "iconColor": "#ffff222",
                                  "childrens": []
                                }
                              ]
                            }
                          ]
                        },
                        {
                          "id": 2,
                          "title": "通知設定",
                          "link": "notify",
                          "menuCode": "notify",
                          "iconName": "notify-class",
                          "iconColor": null,
                          "childrens": []
                        }
                      ],
                      "items": {
                        "type": "object"
                      }
                    }
                  }
                }
              }
            }
          },
          "401": {
            "$ref": "#/components/responses/Unauthorized_401"
          },
          "404": {
            "$ref": "#/components/responses/NotFound_404"
          },
          "500": {
            "$ref": "#/components/responses/Internal_500"
          }
        }
      }
    },
    "/v1/roleOptions": {
      "get": {
        "tags": [
          "選項清單"
        ],
        "summary": "取得角色選項",
        "description": "0.1.1.4",
        "security": [
          {
            "BearerAuth": []
          }
        ],
        "responses": {
          "200": {
            "description": "成功",
            "content": {
              "application/json": {
                "schema": {
                  "type": "object",
                  "properties": {
                    "list": {
                      "type": "array",
                      "description": "資料集合",
                      "example": [
                        {
                          "roleId": 1,
                          "roleName": "一般管理員"
                        },
                        {
                          "roleId": 2,
                          "roleName": "最高管理員"
                        },
                        {
                          "roleId": 3,
                          "roleName": "片商"
                        },
                        {
                          "roleId": 4,
                          "roleName": "店家"
                        }
                      ],
                      "items": {
                        "type": "object"
                      }
                    }
                  }
                }
              }
            }
          },
          "401": {
            "$ref": "#/components/responses/Unauthorized_401"
          },
          "404": {
            "$ref": "#/components/responses/NotFound_404"
          },
          "500": {
            "$ref": "#/components/responses/Internal_500"
          }
        }
      }
    }
  },
  "components": {
    "securitySchemes": {
      "BearerAuth": {
        "type": "http",
        "scheme": "bearer",
        "bearerFormat": "JWT"
      }
    },
    "parameters": {
      "isEnabledParam": {
        "description": "是否啟用",
        "name": "isEnabled",
        "schema": {
          "type": "boolean",
          "nullable": true
        },
        "required": false,
        "in": "query"
      },
      "pageParam": {
        "description": "頁數",
        "name": "page",
        "schema": {
          "type": "number",
          "default": 1
        },
        "required": false,
        "in": "query"
      },
      "pageSizeParam": {
        "description": "每頁筆數",
        "name": "pageSize",
        "schema": {
          "type": "number",
          "default": 25
        },
        "required": false,
        "in": "query"
      },
      "sortNameParam": {
        "description": "排序欄位",
        "name": "sortName",
        "schema": {
          "type": "string",
          "default": "id"
        },
        "required": false,
        "in": "query"
      },
      "sortParam": {
        "description": "排序方式 DESC/ASC",
        "name": "sort",
        "schema": {
          "type": "string",
          "default": "DESC"
        },
        "required": false,
        "in": "query"
      }
    },
    "schemas": {
      "Demo": {
        "type": "object",
        "properties": {
          "propertyName1": {
            "type": "string",
            "description": "參數描述1",
            "example": "abc"
          },
          "propertyName2": {
            "type": "number",
            "description": "參數描述2",
            "example": 123
          },
          "propertyName3": {
            "type": "boolean",
            "description": "參數描述3",
            "example": false
          },
          "propertyName4": {
            "type": "object",
            "description": "參數描述4",
            "properties": {
              "propertyName4_1": {
                "type": "string",
                "description": "參數描述4_1",
                "example": "abc"
              },
              "propertyName4_2": {
                "type": "number",
                "description": "參數描述4_2",
                "example": 123
              }
            }
          },
          "propertyName5": {
            "type": "array",
            "description": "參數描述5",
            "example": [
              "a",
              "b",
              "c"
            ],
            "items": {
              "type": "string"
            }
          }
        }
      }
    },
    "responses": {
      "Created_201": {
        "description": "新增成功。"
      },
      "NoContent_204": {
        "description": "更新成功。"
      },
      "BestRequest_400": {
        "description": "新增/更新失敗，欄位 ... 格式不符。"
      },
      "Unauthorized_401": {
        "description": "驗證錯誤/驗證已失效，請重新登入驗證。"
      },
      "PermissionDenied_403": {
        "description": "您無此操作的權限，請聯絡系統管理員。"
      },
      "NotFound_404": {
        "description": "資料不存在。"
      },
      "Internal_500": {
        "description": "系統發生內部錯誤，請聯絡系統管理員。"
      }
    }
  }
}